-- Merging decision tree log ---
manifest
ADDED from D:\office_work\Android\AndroidStudioProjects\GGSelfie\demo\src\main\AndroidManifest.xml:3:1-20:12
	package
		ADDED from D:\office_work\Android\AndroidStudioProjects\GGSelfie\demo\src\main\AndroidManifest.xml:4:5-53
	xmlns:android
		ADDED from D:\office_work\Android\AndroidStudioProjects\GGSelfie\demo\src\main\AndroidManifest.xml:3:11-69
application
ADDED from D:\office_work\Android\AndroidStudioProjects\GGSelfie\demo\src\main\AndroidManifest.xml:6:5-18:19
MERGED from [GGSelfie.libraries:collage-views:unspecified] D:\office_work\Android\AndroidStudioProjects\GGSelfie\libraries\collage-views\build\intermediates\bundles\default\AndroidManifest.xml:12:5-20
	android:label
		ADDED from D:\office_work\Android\AndroidStudioProjects\GGSelfie\demo\src\main\AndroidManifest.xml:9:9-41
	android:allowBackup
		ADDED from D:\office_work\Android\AndroidStudioProjects\GGSelfie\demo\src\main\AndroidManifest.xml:7:9-35
	android:icon
		ADDED from D:\office_work\Android\AndroidStudioProjects\GGSelfie\demo\src\main\AndroidManifest.xml:8:9-45
	android:theme
		ADDED from D:\office_work\Android\AndroidStudioProjects\GGSelfie\demo\src\main\AndroidManifest.xml:10:9-40
activity#com.thuytrinh.android.collageviewsdemo.HomeActivity
ADDED from D:\office_work\Android\AndroidStudioProjects\GGSelfie\demo\src\main\AndroidManifest.xml:11:9-17:20
	android:name
		ADDED from D:\office_work\Android\AndroidStudioProjects\GGSelfie\demo\src\main\AndroidManifest.xml:11:19-47
intent-filter#android.intent.action.MAIN+android.intent.category.LAUNCHER
ADDED from D:\office_work\Android\AndroidStudioProjects\GGSelfie\demo\src\main\AndroidManifest.xml:12:13-16:29
action#android.intent.action.MAIN
ADDED from D:\office_work\Android\AndroidStudioProjects\GGSelfie\demo\src\main\AndroidManifest.xml:13:17-69
	android:name
		ADDED from D:\office_work\Android\AndroidStudioProjects\GGSelfie\demo\src\main\AndroidManifest.xml:13:25-66
category#android.intent.category.LAUNCHER
ADDED from D:\office_work\Android\AndroidStudioProjects\GGSelfie\demo\src\main\AndroidManifest.xml:15:17-77
	android:name
		ADDED from D:\office_work\Android\AndroidStudioProjects\GGSelfie\demo\src\main\AndroidManifest.xml:15:27-74
uses-sdk
INJECTED from D:\office_work\Android\AndroidStudioProjects\GGSelfie\demo\src\main\AndroidManifest.xml reason: use-sdk injection requested
MERGED from [GGSelfie.libraries:collage-views:unspecified] D:\office_work\Android\AndroidStudioProjects\GGSelfie\libraries\collage-views\build\intermediates\bundles\default\AndroidManifest.xml:8:5-10:41
	android:targetSdkVersion
		INJECTED from D:\office_work\Android\AndroidStudioProjects\GGSelfie\demo\src\main\AndroidManifest.xml
		INJECTED from D:\office_work\Android\AndroidStudioProjects\GGSelfie\demo\src\main\AndroidManifest.xml
	android:minSdkVersion
		INJECTED from D:\office_work\Android\AndroidStudioProjects\GGSelfie\demo\src\main\AndroidManifest.xml
		INJECTED from D:\office_work\Android\AndroidStudioProjects\GGSelfie\demo\src\main\AndroidManifest.xml
